 Volume in drive D is DATA
 Volume Serial Number is 069F-E679

 Directory of D:\vagrant\linux\repos\Optum_Android

05-04-2018  16:09    <DIR>          .
05-04-2018  16:09    <DIR>          ..
29-03-2018  14:49               722 .classpath
05-04-2018  16:08    <DIR>          .git
29-03-2018  14:49             1,280 .project
29-03-2018  14:49    <DIR>          .settings
29-03-2018  14:49            20,624 AndroidManifest.xml
29-03-2018  14:49    <DIR>          assets
29-03-2018  14:49    <DIR>          bin
05-04-2018  16:09                 0 branch2.txt
29-03-2018  14:49    <DIR>          gen
29-03-2018  14:49            51,394 ic_launcher-web.png
29-03-2018  14:49    <DIR>          libs
29-03-2018  14:49               781 proguard-project.txt
29-03-2018  14:49               610 project.properties
29-03-2018  14:49    <DIR>          res
29-03-2018  14:49    <DIR>          src
               7 File(s)         75,411 bytes
              10 Dir(s)  834,587,262,976 bytes free
